{
  "questaoMatrizId": "a67ba4dc-67fa-4698-aaec-700ec2f4f48g",
  "numeroNaMatriz": 1,
  "numeroNaInstancia": 3,
  "fixa": false,
  "enunciado": "<p>Associe as colunas</p>",
  "dificuldade": 2,
  "tipo": "associacaoDeColunas",
  "associacaoDeColunas": {
    "colunaA": [
      {
        "conteudo": "<p>Pronome no na bla ba teste de texto grande , la atrás da rua tinha um poste.</p>",
        "rotulo": 1
      },
      { "conteudo": "<p>Verbo</p>", "rotulo": 2 }
    ],
    "colunaB": [
      {
        "conteudo": "<p>Ele EleEle Ele Ele Ele Ele Ele Ele EleEle Ele Ele Ele Ele Ele Ele EleEle Ele Ele Ele Ele Ele Ele EleEle Ele Ele Ele Ele EleEle EleEle Ele Ele Ele Ele Ele Ele EleEle Ele Ele Ele Ele Ele</p>",
        "rotulo": 1,
        "respostaCandidato": "",
        "dataRespostaCandidato": "2019-03-22T20:24:50.727Z"
      },
      {
        "conteudo": "<p>Ir</p>",
        "rotulo": 2,
        "respostaCandidato": "",
        "dataRespostaCandidato": "2019-03-22T20:24:52.667Z"
      },
      {
        "conteudo": "<p>Ter</p>",
        "rotulo": 2,
        "respostaCandidato": "",
        "dataRespostaCandidato": "2019-03-22T20:24:53.877Z"
      },
      {
        "conteudo": "<p>Nós</p>",
        "rotulo": 1,
        "respostaCandidato": "",
        "dataRespostaCandidato": "2019-03-22T20:24:56.260Z"
      }
    ]
  }
}
